Supplementary information to report “How to measure response diversity”
…
## E.g. Petchey & Leary calculated a correlation for every possible pairing of the jars, and took the mean of that. And for carrying capacity, correlations were calculated on the raw biomass, and not the log10 biomass
  
LT_24_r <- r_vals %>%
  filter(temperature > 20, species %in% c("loxocephallus", "tetrahymena")) %>%
  select(-jar) %>%
  pivot_wider(names_from = species, values_from = x)
ggplot(LT_24_r) +
  geom_point(aes(x = tetrahymena, y = loxocephallus))
cor(LT_24_r$tetrahymena, LT_24_r$loxocephallus) 

Ready to use ‘comm_data’ to calculate correlations between response diversity measures and stability (and perhaps covariance)!!!

comm_data

## # A tibble: 45 × 21
##    microcosm_ID species1  species2 composition_code r_cor   k_cor    cv      cov
##    <chr>        <chr>     <chr>    <chr>            <dbl>   <dbl> <dbl>    <dbl>
##  1 M-1          colpidium loxocep… CL               0.194  0.422  0.463  4.10e-4
##  2 M-3          colpidium tetrahy… CT               0.225  0.0173 0.450 -4.40e-5
##  3 M-4          loxoceph… paramec… LP               0.910  0.0584 0.248  4.54e-6
##  4 M-5          loxoceph… tetrahy… LT               0.968 -0.0525 0.394  9.48e-6
##  5 M-6          parameci… tetrahy… PT               0.897  0.0132 0.368 -2.28e-6
##  6 M-7          colpidium loxocep… CL               0.194  0.422  0.480  2.13e-4
##  7 M-9          colpidium tetrahy… CT               0.225  0.0173 0.456 -4.04e-5
##  8 M-10         loxoceph… paramec… LP               0.910  0.0584 0.357  1.28e-5
##  9 M-11         loxoceph… tetrahy… LT               0.968 -0.0525 0.393  5.77e-6
## 10 M-12         parameci… tetrahy… PT               0.897  0.0132 0.238 -1.14e-6
## # … with 35 more rows, and 13 more variables: cor <dbl>, eve <dbl>, var <dbl>,
## #   tot <dbl>, s <dbl>, temperature_treatment <chr>, min_temperature <dbl>,
## #   max_temperature <dbl>, temperature <dbl>, r_dissimilarity <dbl>,
## #   r_divergence <dbl>, K_dissimilarity <dbl>, K_divergence <dbl>
…
review <- read_csv(here("data/WoS_results.csv"))
review

## # A tibble: 187 × 21
##    Date   WoS_search Handled_by Included Authors Title Journal  Year   Vol Issue
##    <chr>  <chr>      <chr>         <dbl> <chr>   <chr> <chr>   <dbl> <dbl> <chr>
##  1 17/12… response … SRP-JR            1 Lalibe… Land… ECOLOG…  2010    13 1    
##  2 17/12… response … SRP-JR            1 Craven… Eval… DIVERS…  2016    22 5    
##  3 17/12… response … SRP-JR            1 Sasaki… Spec… JOURNA…  2019   107 4    
##  4 17/12… response … SRP-JR            1 Morel … Pass… ECOLOG…  2020    30 1    
##  5 17/12… response … SRP-JR            1 Aquilu… Eval… ECOLOG…  2020    30 5    
##  6 17/12… response … SRP-JR            1 Thornh… The … GLOBAL…  2018    24 7    
##  7 17/12… response … SRP-JR            1 Mumme … Func… BIOLOG…  2015   191 <NA> 
##  8 17/12… response … SRP-JR            1 Mina e… Netw… ECOLOG…  2021    31 1    
##  9 17/12… response … SRP-JR            1 Dobert… Logg… JOURNA…  2017   105 5    
## 10 17/12… response … SRP-JR            1 Altoma… Asse… ACTA O…  2021   111 <NA> 
## # … with 177 more rows, and 11 more variables: Pg_start <chr>, Pg_end <chr>,
## #   Article_ID <chr>, DOI <chr>, Empirical_study <dbl>, Measures_RD <dbl>,
## #   RD_traits <chr>, RD_Int_term <dbl>, RD_Other <dbl>,
## #   Method_Description <chr>, Notes <chr>
